# Created by Octave 3.2.4, Sat Aug 16 15:32:09 2014 India Standard Time <unknown@unknown>
# name: login
# type: string
# elements: 1
# length: 22
vishesh.2710@gmail.com
# name: password
# type: string
# elements: 1
# length: 10
V9jmtTHTYy
